[gd_resource type="SpatialMaterial" format=2]

[resource]
resource_name = "burger_open_red"
params_cull_mode = 2
albedo_color = Color( 0.490196, 0.184314, 0.129412, 1 )
uv1_scale = Vector3( 0.2, 0.2, 0.2 )
