[gd_resource type="SpatialMaterial" load_steps=2 format=2]

[ext_resource path="res://dae/can_texture_pink.png" type="Texture" id=1]

[resource]
resource_name = "can1"
params_cull_mode = 2
albedo_texture = ExtResource( 1 )
metallic = 0.3
metallic_specular = 0.3
roughness = 0.3
