<?xml version="1.0" encoding="utf-8"?>
<COLLADA xmlns="http://www.collada.org/2005/11/COLLADASchema" version="1.4.1" xmlns:xsi="http://www.w3.org/2001/XMLSchema-instance">
  <asset>
    <contributor>
      <author>Blender User</author>
      <authoring_tool>Blender 2.93.1 commit date:2021-06-22, commit time:05:57, hash:1b8d33b18c2f</authoring_tool>
    </contributor>
    <created>2021-08-13T22:39:18</created>
    <modified>2021-08-13T22:39:18</modified>
    <unit name="meter" meter="1"/>
    <up_axis>Z_UP</up_axis>
  </asset>
  <library_effects/>
  <library_images/>
  <library_geometries>
    <geometry id="Cube_025-mesh" name="Cube.025">
      <mesh>
        <source id="Cube_025-mesh-positions">
          <float_array id="Cube_025-mesh-positions-array" count="24">-0.5 -0.5 -0.35 -0.5 -0.5 0.35 -0.5 1.324696 -0.35 -0.5 1.324696 0.35 -0.7 -0.5 -0.35 -0.7 -0.5 0.35 -0.7 1.324696 0.35 -0.7 1.324696 -0.35</float_array>
          <technique_common>
            <accessor source="#Cube_025-mesh-positions-array" count="8" stride="3">
              <param name="X" type="float"/>
              <param name="Y" type="float"/>
              <param name="Z" type="float"/>
            </accessor>
          </technique_common>
        </source>
        <source id="Cube_025-mesh-normals">
          <float_array id="Cube_025-mesh-normals-array" count="30">-1 0 0 0 -1 0 0 0 1 0 1 0 0 0 -1 1 0 0 -1 0 0 0 0 1 0 0 -1 1 0 0</float_array>
          <technique_common>
            <accessor source="#Cube_025-mesh-normals-array" count="10" stride="3">
              <param name="X" type="float"/>
              <param name="Y" type="float"/>
              <param name="Z" type="float"/>
            </accessor>
          </technique_common>
        </source>
        <source id="Cube_025-mesh-map-0">
          <float_array id="Cube_025-mesh-map-0-array" count="72">0.625 0 0.375 0.25 0.375 0 0.625 0 0.375 0 0.625 0 0.625 0.25 0.625 0 0.625 0.25 0.375 0.25 0.625 0.25 0.375 0.25 0.375 0 0.375 0.25 0.375 0 0.625 0.25 0.375 0 0.375 0.25 0.625 0 0.625 0.25 0.375 0.25 0.625 0 0.375 0 0.375 0 0.625 0.25 0.625 0 0.625 0 0.375 0.25 0.625 0.25 0.625 0.25 0.375 0 0.375 0.25 0.375 0.25 0.625 0.25 0.625 0 0.375 0</float_array>
          <technique_common>
            <accessor source="#Cube_025-mesh-map-0-array" count="36" stride="2">
              <param name="S" type="float"/>
              <param name="T" type="float"/>
            </accessor>
          </technique_common>
        </source>
        <vertices id="Cube_025-mesh-vertices">
          <input semantic="POSITION" source="#Cube_025-mesh-positions"/>
        </vertices>
        <triangles count="12">
          <input semantic="VERTEX" source="#Cube_025-mesh-vertices" offset="0"/>
          <input semantic="NORMAL" source="#Cube_025-mesh-normals" offset="1"/>
          <input semantic="TEXCOORD" source="#Cube_025-mesh-map-0" offset="2" set="0"/>
          <p>5 0 0 7 0 1 4 0 2 5 1 3 0 1 4 1 1 5 6 2 6 1 2 7 3 2 8 7 3 9 3 3 10 2 3 11 4 4 12 2 4 13 0 4 14 3 5 15 0 5 16 2 5 17 5 6 18 6 6 19 7 6 20 5 1 21 4 1 22 0 1 23 6 7 24 5 7 25 1 7 26 7 3 27 6 3 28 3 3 29 4 8 30 7 8 31 2 8 32 3 9 33 1 9 34 0 9 35</p>
        </triangles>
      </mesh>
    </geometry>
    <geometry id="Cube_024-mesh" name="Cube.024">
      <mesh>
        <source id="Cube_024-mesh-positions">
          <float_array id="Cube_024-mesh-positions-array" count="24">-0.5 0.5 -0.35 -0.5 0.5 0.35 0.5 0.5 -0.35 0.5 0.5 0.35 -0.5 0.7 -0.35 -0.5 0.7 0.35 0.5 0.7 0.35 0.5 0.7 -0.35</float_array>
          <technique_common>
            <accessor source="#Cube_024-mesh-positions-array" count="8" stride="3">
              <param name="X" type="float"/>
              <param name="Y" type="float"/>
              <param name="Z" type="float"/>
            </accessor>
          </technique_common>
        </source>
        <source id="Cube_024-mesh-normals">
          <float_array id="Cube_024-mesh-normals-array" count="18">0 1 0 -1 0 0 0 0 1 1 0 0 0 0 -1 0 -1 0</float_array>
          <technique_common>
            <accessor source="#Cube_024-mesh-normals-array" count="6" stride="3">
              <param name="X" type="float"/>
              <param name="Y" type="float"/>
              <param name="Z" type="float"/>
            </accessor>
          </technique_common>
        </source>
        <source id="Cube_024-mesh-map-0">
          <float_array id="Cube_024-mesh-map-0-array" count="72">0.625 0.25 0.375 0.5 0.375 0.25 0.625 0.25 0.375 0.25 0.625 0.25 0.625 0.5 0.625 0.25 0.625 0.5 0.375 0.5 0.625 0.5 0.375 0.5 0.375 0.25 0.375 0.5 0.375 0.25 0.375 0.5 0.625 0.25 0.375 0.25 0.625 0.25 0.625 0.5 0.375 0.5 0.625 0.25 0.375 0.25 0.375 0.25 0.625 0.5 0.625 0.25 0.625 0.25 0.375 0.5 0.625 0.5 0.625 0.5 0.375 0.25 0.375 0.5 0.375 0.5 0.375 0.5 0.625 0.5 0.625 0.25</float_array>
          <technique_common>
            <accessor source="#Cube_024-mesh-map-0-array" count="36" stride="2">
              <param name="S" type="float"/>
              <param name="T" type="float"/>
            </accessor>
          </technique_common>
        </source>
        <vertices id="Cube_024-mesh-vertices">
          <input semantic="POSITION" source="#Cube_024-mesh-positions"/>
        </vertices>
        <triangles count="12">
          <input semantic="VERTEX" source="#Cube_024-mesh-vertices" offset="0"/>
          <input semantic="NORMAL" source="#Cube_024-mesh-normals" offset="1"/>
          <input semantic="TEXCOORD" source="#Cube_024-mesh-map-0" offset="2" set="0"/>
          <p>5 0 0 7 0 1 4 0 2 5 1 3 0 1 4 1 1 5 6 2 6 1 2 7 3 2 8 7 3 9 3 3 10 2 3 11 4 4 12 2 4 13 0 4 14 2 5 15 1 5 16 0 5 17 5 0 18 6 0 19 7 0 20 5 1 21 4 1 22 0 1 23 6 2 24 5 2 25 1 2 26 7 3 27 6 3 28 3 3 29 4 4 30 7 4 31 2 4 32 2 5 33 3 5 34 1 5 35</p>
        </triangles>
      </mesh>
    </geometry>
    <geometry id="Cube_023-mesh" name="Cube.023">
      <mesh>
        <source id="Cube_023-mesh-positions">
          <float_array id="Cube_023-mesh-positions-array" count="24">-0.5 -0.5 0.35 -0.5 1.324696 0.35 0.5 -0.5 0.35 0.5 1.324696 0.35 0.5 1.324696 0.5500001 -0.5 1.324696 0.5500001 -0.5 -0.5 0.55 0.5 -0.5 0.55</float_array>
          <technique_common>
            <accessor source="#Cube_023-mesh-positions-array" count="8" stride="3">
              <param name="X" type="float"/>
              <param name="Y" type="float"/>
              <param name="Z" type="float"/>
            </accessor>
          </technique_common>
        </source>
        <source id="Cube_023-mesh-normals">
          <float_array id="Cube_023-mesh-normals-array" count="18">0 0 1 0 1 0 -1 0 0 0 -1 0 1 0 0 0 0 -1</float_array>
          <technique_common>
            <accessor source="#Cube_023-mesh-normals-array" count="6" stride="3">
              <param name="X" type="float"/>
              <param name="Y" type="float"/>
              <param name="Z" type="float"/>
            </accessor>
          </technique_common>
        </source>
        <source id="Cube_023-mesh-map-0">
          <float_array id="Cube_023-mesh-map-0-array" count="72">0.875 0.5 0.625 0.75 0.625 0.5 0.875 0.5 0.625 0.5 0.875 0.5 0.875 0.75 0.875 0.5 0.875 0.75 0.625 0.75 0.875 0.75 0.625 0.75 0.625 0.5 0.625 0.75 0.625 0.5 0.875 0.5 0.625 0.75 0.875 0.75 0.875 0.5 0.875 0.75 0.625 0.75 0.875 0.5 0.625 0.5 0.625 0.5 0.875 0.75 0.875 0.5 0.875 0.5 0.625 0.75 0.875 0.75 0.875 0.75 0.625 0.5 0.625 0.75 0.625 0.75 0.875 0.5 0.625 0.5 0.625 0.75</float_array>
          <technique_common>
            <accessor source="#Cube_023-mesh-map-0-array" count="36" stride="2">
              <param name="S" type="float"/>
              <param name="T" type="float"/>
            </accessor>
          </technique_common>
        </source>
        <vertices id="Cube_023-mesh-vertices">
          <input semantic="POSITION" source="#Cube_023-mesh-positions"/>
        </vertices>
        <triangles count="12">
          <input semantic="VERTEX" source="#Cube_023-mesh-vertices" offset="0"/>
          <input semantic="NORMAL" source="#Cube_023-mesh-normals" offset="1"/>
          <input semantic="TEXCOORD" source="#Cube_023-mesh-map-0" offset="2" set="0"/>
          <p>5 0 0 7 0 1 4 0 2 5 1 3 3 1 4 1 1 5 6 2 6 1 2 7 0 2 8 7 3 9 0 3 10 2 3 11 4 4 12 2 4 13 3 4 14 1 5 15 2 5 16 0 5 17 5 0 18 6 0 19 7 0 20 5 1 21 4 1 22 3 1 23 6 2 24 5 2 25 1 2 26 7 3 27 6 3 28 0 3 29 4 4 30 7 4 31 2 4 32 1 5 33 3 5 34 2 5 35</p>
        </triangles>
      </mesh>
    </geometry>
    <geometry id="Cube_022-mesh" name="Cube.022">
      <mesh>
        <source id="Cube_022-mesh-positions">
          <float_array id="Cube_022-mesh-positions-array" count="27">0.5 -0.5 -0.35 0.5 -0.5 0.35 0.5 1.324696 -0.35 0.5 1.324696 0.35 0.5 1.524696 0.35 0.7 1.324696 -0.35 0.7 1.324696 0.35 0.7 -0.5 0.35 0.7 -0.5 -0.35</float_array>
          <technique_common>
            <accessor source="#Cube_022-mesh-positions-array" count="9" stride="3">
              <param name="X" type="float"/>
              <param name="Y" type="float"/>
              <param name="Z" type="float"/>
            </accessor>
          </technique_common>
        </source>
        <source id="Cube_022-mesh-normals">
          <float_array id="Cube_022-mesh-normals-array" count="30">1 0 0 0 1 0 0 0 1 0 -1 0 0 0 -1 -1 0 0 1 0 0 0 0 1 0 0 -1 -1 0 0</float_array>
          <technique_common>
            <accessor source="#Cube_022-mesh-normals-array" count="10" stride="3">
              <param name="X" type="float"/>
              <param name="Y" type="float"/>
              <param name="Z" type="float"/>
            </accessor>
          </technique_common>
        </source>
        <source id="Cube_022-mesh-map-0">
          <float_array id="Cube_022-mesh-map-0-array" count="72">0.625 0.5 0.375 0.75 0.375 0.5 0.625 0.5 0.375 0.5 0.625 0.5 0.625 0.75 0.625 0.5 0.625 0.75 0.375 0.75 0.625 0.75 0.375 0.75 0.375 0.5 0.375 0.75 0.375 0.5 0.375 0.75 0.625 0.5 0.375 0.5 0.625 0.5 0.625 0.75 0.375 0.75 0.625 0.5 0.375 0.5 0.375 0.5 0.625 0.75 0.625 0.5 0.625 0.5 0.375 0.75 0.625 0.75 0.625 0.75 0.375 0.5 0.375 0.75 0.375 0.75 0.375 0.75 0.625 0.75 0.625 0.5</float_array>
          <technique_common>
            <accessor source="#Cube_022-mesh-map-0-array" count="36" stride="2">
              <param name="S" type="float"/>
              <param name="T" type="float"/>
            </accessor>
          </technique_common>
        </source>
        <vertices id="Cube_022-mesh-vertices">
          <input semantic="POSITION" source="#Cube_022-mesh-positions"/>
        </vertices>
        <lines count="1">
          <input semantic="VERTEX" source="#Cube_022-mesh-vertices" offset="0"/>
          <p>4 3</p>
        </lines>
        <triangles count="12">
          <input semantic="VERTEX" source="#Cube_022-mesh-vertices" offset="0"/>
          <input semantic="NORMAL" source="#Cube_022-mesh-normals" offset="1"/>
          <input semantic="TEXCOORD" source="#Cube_022-mesh-map-0" offset="2" set="0"/>
          <p>6 0 0 8 0 1 5 0 2 6 1 3 2 1 4 3 1 5 7 2 6 3 2 7 1 2 8 8 3 9 1 3 10 0 3 11 5 4 12 0 4 13 2 4 14 0 5 15 3 5 16 2 5 17 6 6 18 7 6 19 8 6 20 6 1 21 5 1 22 2 1 23 7 7 24 6 7 25 3 7 26 8 3 27 7 3 28 1 3 29 5 8 30 8 8 31 0 8 32 0 9 33 1 9 34 3 9 35</p>
        </triangles>
      </mesh>
    </geometry>
    <geometry id="Cube_020-mesh" name="Cube.020">
      <mesh>
        <source id="Cube_020-mesh-positions">
          <float_array id="Cube_020-mesh-positions-array" count="24">-0.5 -0.5 -0.35 -0.5 1.324696 -0.35 0.5 -0.5 -0.35 0.5 1.324696 -0.35 -0.5 1.324696 -0.55 0.5 1.324696 -0.55 0.5 -0.5 -0.55 -0.5 -0.5 -0.55</float_array>
          <technique_common>
            <accessor source="#Cube_020-mesh-positions-array" count="8" stride="3">
              <param name="X" type="float"/>
              <param name="Y" type="float"/>
              <param name="Z" type="float"/>
            </accessor>
          </technique_common>
        </source>
        <source id="Cube_020-mesh-normals">
          <float_array id="Cube_020-mesh-normals-array" count="18">0 0 -1 0 1 0 1 0 0 0 -1 0 -1 0 0 0 0 1</float_array>
          <technique_common>
            <accessor source="#Cube_020-mesh-normals-array" count="6" stride="3">
              <param name="X" type="float"/>
              <param name="Y" type="float"/>
              <param name="Z" type="float"/>
            </accessor>
          </technique_common>
        </source>
        <source id="Cube_020-mesh-map-0">
          <float_array id="Cube_020-mesh-map-0-array" count="72">0.375 0.5 0.125 0.75 0.125 0.5 0.375 0.5 0.125 0.5 0.375 0.5 0.375 0.75 0.375 0.5 0.375 0.75 0.125 0.75 0.375 0.75 0.125 0.75 0.125 0.5 0.125 0.75 0.125 0.5 0.125 0.75 0.375 0.5 0.125 0.5 0.375 0.5 0.375 0.75 0.125 0.75 0.375 0.5 0.125 0.5 0.125 0.5 0.375 0.75 0.375 0.5 0.375 0.5 0.125 0.75 0.375 0.75 0.375 0.75 0.125 0.5 0.125 0.75 0.125 0.75 0.125 0.75 0.375 0.75 0.375 0.5</float_array>
          <technique_common>
            <accessor source="#Cube_020-mesh-map-0-array" count="36" stride="2">
              <param name="S" type="float"/>
              <param name="T" type="float"/>
            </accessor>
          </technique_common>
        </source>
        <vertices id="Cube_020-mesh-vertices">
          <input semantic="POSITION" source="#Cube_020-mesh-positions"/>
        </vertices>
        <triangles count="12">
          <input semantic="VERTEX" source="#Cube_020-mesh-vertices" offset="0"/>
          <input semantic="NORMAL" source="#Cube_020-mesh-normals" offset="1"/>
          <input semantic="TEXCOORD" source="#Cube_020-mesh-map-0" offset="2" set="0"/>
          <p>5 0 0 7 0 1 4 0 2 5 1 3 1 1 4 3 1 5 6 2 6 3 2 7 2 2 8 7 3 9 2 3 10 0 3 11 4 4 12 0 4 13 1 4 14 0 5 15 3 5 16 1 5 17 5 0 18 6 0 19 7 0 20 5 1 21 4 1 22 1 1 23 6 2 24 5 2 25 3 2 26 7 3 27 6 3 28 2 3 29 4 4 30 7 4 31 0 4 32 0 5 33 2 5 34 3 5 35</p>
        </triangles>
      </mesh>
    </geometry>
  </library_geometries>
  <library_visual_scenes>
    <visual_scene id="Scene" name="Scene">
      <node id="Cube_016-convcolonly" name="Cube.016-convcolonly" type="NODE">
        <matrix sid="transform">1 0 0 2.775319 0 0.7071068 -0.7071068 0.4013777 0 0.7071068 0.7071068 -6.491419 0 0 0 1</matrix>
        <instance_geometry url="#Cube_025-mesh" name="Cube.016-convcolonly"/>
      </node>
      <node id="Cube_015-convcolonly" name="Cube.015-convcolonly" type="NODE">
        <matrix sid="transform">1 0 0 2.775319 0 0.7071068 -0.7071068 0.9463983 0 0.7071068 0.7071068 -5.946398 0 0 0 1</matrix>
        <instance_geometry url="#Cube_024-mesh" name="Cube.015-convcolonly"/>
      </node>
      <node id="Cube_014-convcolonly" name="Cube.014-convcolonly" type="NODE">
        <matrix sid="transform">1 0 0 2.775319 0 0.7071068 -0.7071068 0.4013777 0 0.7071068 0.7071068 -6.491419 0 0 0 1</matrix>
        <instance_geometry url="#Cube_023-mesh" name="Cube.014-convcolonly"/>
      </node>
      <node id="Cube_013-convcolonly" name="Cube.013-convcolonly" type="NODE">
        <matrix sid="transform">1 0 0 2.775319 0 0.7071068 -0.7071068 0.4013777 0 0.7071068 0.7071068 -6.491419 0 0 0 1</matrix>
        <instance_geometry url="#Cube_022-mesh" name="Cube.013-convcolonly"/>
      </node>
      <node id="Cube_011-convcolonly" name="Cube.011-convcolonly" type="NODE">
        <matrix sid="transform">1 0 0 2.775319 0 0.7071068 -0.7071068 0.4013777 0 0.7071068 0.7071068 -6.491419 0 0 0 1</matrix>
        <instance_geometry url="#Cube_020-mesh" name="Cube.011-convcolonly"/>
      </node>
    </visual_scene>
  </library_visual_scenes>
  <scene>
    <instance_visual_scene url="#Scene"/>
  </scene>
</COLLADA>