[gd_resource type="SpatialMaterial" load_steps=2 format=2]

[ext_resource path="res://noise.jpg" type="Texture" id=1]

[resource]
resource_name = "pipes"
params_cull_mode = 2
albedo_color = Color( 0.827451, 0.592157, 0.396078, 1 )
metallic = 0.75
roughness = 0.2
normal_enabled = true
normal_scale = 0.2
normal_texture = ExtResource( 1 )
uv1_scale = Vector3( 5, 5, 5 )
uv1_offset = Vector3( 0, 0.669, 0 )
