[gd_resource type="SpatialMaterial" format=2]

[resource]
resource_name = "vending_glass"
flags_transparent = true
params_cull_mode = 2
albedo_color = Color( 0, 0.505882, 1, 0.0980392 )
metallic = 0.5
roughness = 0.5
