[gd_scene load_steps=9 format=2]

[ext_resource path="res://bowling_pin.png" type="Texture" id=1]
[ext_resource path="res://dae/copper_spatialmaterial.tres" type="Material" id=2]

[sub_resource type="PhysicsMaterial" id=1]
friction = 0.0
bounce = 0.5

[sub_resource type="CylinderShape" id=2]
radius = 0.05
height = 0.2

[sub_resource type="CylinderMesh" id=3]
top_radius = 0.05
bottom_radius = 0.05
height = 0.2

[sub_resource type="SphereMesh" id=4]

[sub_resource type="QuadMesh" id=5]

[sub_resource type="SpatialMaterial" id=6]
flags_transparent = true
albedo_texture = ExtResource( 1 )

[node name="PinBowling" type="RigidBody" groups=[
"nudge",
]]
physics_material_override = SubResource( 1 )
axis_lock_linear_x = true
axis_lock_linear_y = true
axis_lock_linear_z = true
axis_lock_angular_x = true
axis_lock_angular_y = true
angular_damp = 1.0

[node name="CollisionShape" type="CollisionShape" parent="."]
transform = Transform( 0.2, 0, 0, 0, -8.74229e-09, -0.2, 0, 1, -4.37114e-08, 0, 0, -0.05 )
shape = SubResource( 2 )

[node name="MeshInstance" type="MeshInstance" parent="."]
transform = Transform( 0.2, 0, 0, 0, -8.74229e-09, -0.2, 0, 1, -4.37114e-08, 0, 0, -0.05 )
mesh = SubResource( 3 )
material/0 = ExtResource( 2 )

[node name="MeshInstance2" type="MeshInstance" parent="."]
transform = Transform( 0.0336, 0, 0, 0, -6.75603e-09, -0.0336, 0, 0.0168, -6.02168e-09, 0, 0, 0.05 )
mesh = SubResource( 4 )
material/0 = ExtResource( 2 )

[node name="MeshInstance3" type="MeshInstance" parent="."]
transform = Transform( 1, 0, 0, 0, 1, 1.06581e-14, 0, -1.06581e-14, 1, 0, 0, 0.0343349 )
mesh = SubResource( 5 )
material/0 = SubResource( 6 )
